@startuml
left to right direction
scale 500 width
scale 500 height

StateInsertFilledShapes ..> StateInsertCircle
StateInsertFilledShapes ..> StateInsertOval
StateInsertFilledShapes ..> StateInsertRectangle
StateInsertFilledShapes ..> StateInsertTriangle
StateInsertFilledShapes ..> StateInsertSquare
StateInsertTransparentShapes ..> StateInsertCircle
StateInsertTransparentShapes ..> StateInsertOval
StateInsertTransparentShapes ..> StateInsertRectangle
StateInsertTransparentShapes ..> StateInsertTriangle
StateInsertTransparentShapes ..> StateInsertSquare

Commander --> ShapeContainer

Load --> ShapeContainer
Load --> LoadDecorations
Load --> LoadShapes
LoadDecorations --> LoadShapes
Save --> ShapeContainer

MouseHandler --> Pointable
ShapeContainer --> State
ShapeContainer --> Shape
ShapeContainer o-- MouseHandler
ShapeContainer o-- KeyListener

VectorGUI --> ShapeContainer
AbstractShape --> StateCombine
LineFreeHand --> Pixel
StateFreeDraw --> LineFreeHand

State --> Commander
Circle --> Point
Rectangle --> Point
Oval --> Point
Triangle --> Point
Square --> Point

APDraw --> VectorGUI


class StateInsertFilledShapes extends State {
{static} -instance : StateInsertFilledShapes
+createOpaqueShapes() : void
{static} +getInstance() : StateInsertFilledShapes
}

class StateInsertTransparentShapes extends State {
{static} -instance : StateInsertTransparentShapes
+createTransparentShapes() : void
{static} +getInstance() : StateInsertTransparentShapes
}

class Commander {
{static} -instance : Commander
-UNDOLIST : List<List<Shape>> = new ArrayList
-REDOLIST : List<List<Shape>> = new ArrayList
-shapeContainer : ShapeContainer
-firstLastIndex : boolean = true
+addShapeContainer(shapeContainer : ShapeContainer) : void
+getLastInUndoList() : List<Shape>
+getLastInRedoList() : List<Shape>
+addToUndoList() : void
+undoCommand() : void
+redoCommand() : void
{static} +getInstance() : Commander
}

class Load {
-shapeContainer : ShapeContainer
-loadFile : File
-shapeList : List<Shape>
-shapeDecoratorLoader : LoadDecorations
-shapeLoader : LoadShapes
+load(loadFile : File, shapeContainer : ShapeContainer)
-loadShapes() : void
-shapeCreatorM(type : String, x : double, y : double, radiusOrSide : double, lineSize : int, markedShapeDec : String, markedCrossDec : String, subType : String, color : int, transparency : boolean) : Shape
}

class LoadDecorations implements ShapeDecorationsBlueprint {
{static} -instance : LoadDecorations
-loadShapes : LoadShapes
+createDecoratedShapes(x : double, y : double, radiusOrSide : double, lineSize : int, markedShapeDec : String, markedCrossDec : String, subType : String, color : int, transparency : boolean) : Shape
+decorateCircle(x : double, y : double, radiusOrSide : double, lineSize : int, markedShapeDec : String, markedCrossDec : String, subType : String, color : int, transparency : boolean) : Shape
+decorateOval(x : double, y : double, radiusOrSide : double, lineSize : int, markedShapeDec : String, markedCrossDec : String, subType : String, color : int, transparency : boolean) : Shape
+decorateRectangle(x : double, y : double, radiusOrSide : double, lineSize : int, markedShapeDec : String, markedCrossDec : String, subType : String, color : int, transparency : boolean) : Shape
+decorateSquare(x : double, y : double, radiusOrSide : double, lineSize : int, markedShapeDec : String, markedCrossDec : String, subType : String, color : int, transparency : boolean) : Shape
+decorateTriangle(x : double, y : double, radiusOrSide : double, lineSize : int, markedShapeDec : String, markedCrossDec : String, subType : String, color : int, transparency : boolean) : Shape
{static} +getInstance() : LoadDecorations
}

class LoadShapes implements ShapeBlueprint {
{static} -instance : LoadShapes
+circle(x : double, y : double, radiusOrSide : double, lineSize : int, markedShapeDec : String, markedCrossDec : String, subType : String, color : int, transparency : boolean) : Shape
+oval(x : double, y : double, radiusOrSide : double, lineSize : int, markedShapeDec : String, markedCrossDec : String, subType : String, color : int, transparency : boolean) : Shape
+rectangle(x : double, y : double, radiusOrSide : double, lineSize : int, markedShapeDec : String, markedCrossDec : String, subType : String, color : int, transparency : boolean) : Shape
+square(x : double, y : double, radiusOrSide : double, lineSize : int, markedShapeDec : String, markedCrossDec : String, subType : String, color : int, transparency : boolean) : Shape
+triangle(x : double, y : double, radiusOrSide : double, lineSize : int, markedShapeDec : String, markedCrossDec : String, subType : String, color : int, transparency : boolean) : Shape
{static} +getInstance() : LoadShapes
}

class save {
-shapeContainer : ShapeContainer
-saveFile : File
-saveShapes() : void
}

interface ShapeBlueprint {
+circle(x : double, y : double, radiusOrSide : double, lineSize : int, markedShapeDec : String, markedCrossDec : String, subType : String, color : int, transparency : boolean) : Shape
+oval(x : double, y : double, radiusOrSide : double, lineSize : int, markedShapeDec : String, markedCrossDec : String, subType : String, color : int, transparency : boolean) : Shape
+rectangle(x : double, y : double, radiusOrSide : double, lineSize : int, markedShapeDec : String, markedCrossDec : String, subType : String, color : int, transparency : boolean) : Shape
+square(x : double, y : double, radiusOrSide : double, lineSize : int, markedShapeDec : String, markedCrossDec : String, subType : String, color : int, transparency : boolean) : Shape
+triangle(x : double, y : double, radiusOrSide : double, lineSize : int, markedShapeDec : String, markedCrossDec : String, subType : String, color : int, transparency : boolean) : Shape
}

interface ShapeDecorationsBlueprint {
+createDecoratedShapes(x : double, y : double, radiusOrSide : double, lineSize : int, markedShapeDec : String, markedCrossDec : String, subType : String, color : int, transparency : boolean) : Shape
+decorateCircle(x : double, y : double, radiusOrSide : double, lineSize : int, markedShapeDec : String, markedCrossDec : String, subType : String, color : int, transparency : boolean) : Shape
+decorateOval(x : double, y : double, radiusOrSide : double, lineSize : int, markedShapeDec : String, markedCrossDec : String, subType : String, color : int, transparency : boolean) : Shape
+decorateRectangle(x : double, y : double, radiusOrSide : double, lineSize : int, markedShapeDec : String, markedCrossDec : String, subType : String, color : int, transparency : boolean) : Shape
+decorateSquare(x : double, y : double, radiusOrSide : double, lineSize : int, markedShapeDec : String, markedCrossDec : String, subType : String, color : int, transparency : boolean) : Shape
+decorateTriangle(x : double, y : double, radiusOrSide : double, lineSize : int, markedShapeDec : String, markedCrossDec : String, subType : String, color : int, transparency : boolean) : Shape
}

abstract class AbstractShape implements Shape{
#markedShape : String
#markedCorssHair : String
#lineSize : int
#isComposite : boolean
#compositeShape : stateCombine
#color : Color
#center : Point
+setColor(color : Color) : void
+getColor() : int
+getPosition() : Point
+peel() : Shape
+setMarkedShape(marked : String) : void
+setMarkedCrosshair(marked : String) : void
+getMarkedShape() : String
+getMarkedCrossHair() : String
+lineSize(size : int) : void
+getCompositeList() : StateCombine
+setIsCompositeItem(isComposite : boolean) : void
+getIsCompositeItem() : boolean
+setIsTransparent(isTransparent : boolean)
+getIsTransparent() : boolean
+setCompositeList(compositeShape : StateCombine) : void
}

class Circle extends AbstractShape implements Shape, Cloneable {
-r : double
-TYPE : String
+draw(g : Graphics2D) : void
+getOriginalSideOrRadius() : double
+getWidth() : double
+getHeight() : double
+intersects(point : Point) : boolean
+moveTo(point : Point) : void
+moveOrDraw(dx : double, dy : double) : void
+resizeTo(point : Point) : void
+getType() : String
+getSubType() : String
+ShapeClone() : Shape
}

class Rectangle extends AbstractShape implements Shape, Cloneable {
-r : double
-TYPE : String
+draw(g : Graphics2D) : void
+getOriginalSideOrRadius() : double
+getWidth() : double
+getHeight() : double
+intersects(point : Point) : boolean
+moveTo(point : Point) : void
+moveOrDraw(dx : double, dy : double) : void
+resizeTo(point : Point) : void
+getType() : String
+getSubType() : String
+ShapeClone() : Shape
}

class Oval extends AbstractShape implements Shape, Cloneable {
-r : double
-TYPE : String
+draw(g : Graphics2D) : void
+getOriginalSideOrRadius() : double
+getWidth() : double
+getHeight() : double
+intersects(point : Point) : boolean
+moveTo(point : Point) : void
+moveOrDraw(dx : double, dy : double) : void
+resizeTo(point : Point) : void
+getType() : String
+getSubType() : String
+ShapeClone() : Shape
}

class Square extends AbstractShape implements Shape, Cloneable {
-r : double
-TYPE : String
+draw(g : Graphics2D) : void
+getOriginalSideOrRadius() : double
+getWidth() : double
+getHeight() : double
+intersects(point : Point) : boolean
+moveTo(point : Point) : void
+moveOrDraw(dx : double, dy : double) : void
+resizeTo(point : Point) : void
+getType() : String
+getSubType() : String
+ShapeClone() : Shape
}

class Triangle extends AbstractShape implements Shape, Cloneable {
-r : double
-TYPE : String
+draw(g : Graphics2D) : void
+getOriginalSideOrRadius() : double
+getWidth() : double
+getHeight() : double
+intersects(point : Point) : boolean
+moveTo(point : Point) : void
+moveOrDraw(dx : double, dy : double) : void
+resizeTo(point : Point) : void
+getType() : String
+getSubType() : String
+ShapeClone() : Shape
}

class ShapeDecorator extends AbstractShape implements Shape, Cloneable{
-shapeToDecorate : Shape
-TYPE : String
+draw(g : Graphics2D) : void
+setColor(color : Color) : void
+getColor() : int
+getOriginalSideOrRadius() : double
+getPosition() : Point
+getWidth() : double
+getHeight() : double
+intersects(point : Point) : boolean
+moveTo(point : Point) : void
+moveOrDraw(dx : double, dy : double) : void
+resizeTo(point : Point) : void
+peel() : Shape
+getType() : String
+getSubType() : String
+setMarkedShape(marked : String) : void
+setMarkedCrosshair(marked : String) : void
+getMarkedShape() : String
+getMarkedCrossHair() : String
+lineSize(size : int) : void
+getLineSize() : int
+setIsTransparent(isTransparent : boolean)
+getIsTransparent() : boolean
+ShapeClone() : Shape
}

class ShapeDecoratorCrosshair extends AbstractShape implements Shape, Cloneable{
-shapeToDecorate : Shape
-TYPE : String
+draw(g : Graphics2D) : void
+setColor(color : Color) : void
+getColor() : int
+getOriginalSideOrRadius() : double
+getPosition() : Point
+getWidth() : double
+getHeight() : double
+intersects(point : Point) : boolean
+moveTo(point : Point) : void
+moveOrDraw(dx : double, dy : double) : void
+resizeTo(point : Point) : void
+peel() : Shape
+getType() : String
+getSubType() : String
+setMarkedShape(marked : String) : void
+setMarkedCrosshair(marked : String) : void
+getMarkedShape() : String
+getMarkedCrossHair() : String
+lineSize(size : int) : void
+getLineSize() : int
+setIsTransparent(isTransparent : boolean)
+getIsTransparent() : boolean
+ShapeClone() : Shape
}

class Point{
-x : double
-y : double
+getX() : double
+getY() : double
+setX(x : double) : void
+setY(y : double) : void
+move(dx : double, dy : double) : void
+moveTo(point : Point) : void
+distanceTo(point : Point) : double
}

interface Pointable{
+pointerDown(point : Point) : void
+pointerUp(point : Point) : void
+pointerMoved(point : Point, pointerDown : boolean) : void
}

interface Shape{
+draw(g : Graphics) : void
+getPosition() : Point
+getWidth() : double
+getHeight() : double
+getHeight() : double
+intersects(point : Point) : boolean
+moveTo(point : Point) : void
+move(dx : double, dy : double) : void
+resizeTo(point : Point) : void
+peel() : Shape
}

class ShapeFactory {
{static} -INSTANCE : ShapeFactory
+createCircle(point : Point, r : double) : Circle
+createCircle(x : double, y : double, r : double)
+createOval(point : Point, r : double) : Circle
+createOval(x : double, y : double, r : double)
+createTriangle(point : Point, r : double) : Circle
+createTriangle(x : double, y : double, r : double)
+createRectangle(point : Point, r : double) : Circle
+createRectangle(x : double, y : double, r : double)
+createSquare(point : Point, r : double) : Circle
+createSquare(x : double, y : double, r : double)
+createShapeDecorator(shape : Shape) : ShapeDecorator
+createShapeDecoratorCrosshair(shape : Shape) : ShapeDecoratorCrosshair
+createPixel(x : int, y : int, color : int) : Pixel
+createPoint(x : double, y : double) : Point
{static} +getFactoryInstance() : ShapeFactory
}

class Pixel implements Cloneable {
-x : int
-y : int
-color : int
+getX() : int
+setX(x : int) : void
+getY() : int
+setY(y : int) : void
+getColor() : int
+setColor(color : int)
+setPosition(x : int, y : int) : void
#clone() : Pixel
}

class APDraw{
{static} +main(args : String[]) : void
}

class MouseHandler implements MouseListener, MouseMotionListener{
-pointable: Pointable
+mouseDragged(e : MouseEvent) : void
+mouseMoved(e : MouseEvent) : void
+mouseClicked(e : MouseEvent) : void
+mousePressed(e : MouseEvent) : void
+mouseReleased(e : MouseEvent) : void
+mouseEntered(e : MouseEvent) : void
+mouseExited(e : MouseEvent) : void
}

class KeyListener implements java.awt.event.KeyListener {
+keyTyped(e : KeyEvent)
+keyPressed(e : KeyEvent)
+keyReleased(e : KeyEvent)
}

class ShapeContainer extends JPanel implements Pointable, KeyListener{
-shapes : List<Shape> = new LinkedList
-shapeContainerState : State
+selected : Shape
+setState(state : State) : void
+getShapes() : List<Shape>
+setShapes(shapes : List<Shape>) : void
+getLastShape() : Shape
+paintComponent(g : Graphics) : void
+select(point : Point) : void
+pointerDown(point : Point) : void
+pointerUp(point : Point) : void
+pointerMoved(point : Point, pointerDown : boolean) : void
}

class VectorGUI extends JFrame{
-FC : JFileChooser
-shapeContainer : ShapeContainer
-menuFile : JMenu
-menuShape : JMenu
-menuTools : JMenu
-menuDecorate : JMenu
-Command : JMenu
-lineWidth : JMenu
-paint : JMenu
-transparency : JMenu
-save : JMenuItem
-load : JMenuItem
-newWindow : JMenuItem
-closeWindow : JMenuItem
-insertRectangle : JMenuItem
-insertCircle : JMenuItem
-insertSquare : JMenuItem
-insertOval : JMenuItem
-insertTriangle : JMenuItem
-drawFreeLine : JMenuItem
-undo : JMenuItem
-redo : JMenuItem
-move : JMenuItem
-delete : JMenuItem
-resize : JMenuItem
-combine : JMenuItem
-split : JMenuItem
-mark : JMenuItem
-crosshairMark : JMenuItem
-unmark : JMenuItem
-lineWidth1 : JMenuItem
-lineWidth2 : JMenuItem
-lineWidth3 : JMenuItem
-lineWidth4 : JMenuItem
-lineWidth5 : JMenuItem
-colorWhite : JMenuItem
-colorBlue : JMenuItem
-colorRed : JMenuItem
-colorGreen : JMenuItem
-colorBlack : JMenuItem
-colorYellow : JMenuItem
-colorCyan : JMenuItem
-transparentOrOpaque : JMenuItem
-insertTransparentShapes : JMenuItem
-insertFilledShapes : JMenuItem
+buildTheUI() : void
+setUpEventHandling() : void
}

class NoState extends State {
{static} -instance : NoState = null
{static} +getInstance() : NoState
}

abstract class State {
#flag : boolean = true
#isTransparent : boolean = true
#commander : Commander
+pointerDown(point : Point, shapeContainer : ShapeContainer) : void
+pointerMoved(point : Point, pointerDown : boolean, shapeContainer : ShapeContainer) : void
+pointerUp(point : Point, shapeContainer : ShapeContainer) : void
#addToUndoList() : void
}

class StateColor extends State {
{static} -instance : StateColor = null
-color : Color
+setColor(color : Color) : void
+pointerDown(point : Point, shapeContainer : ShapeContainer) : void
{static} +getInstance() : StateColor
}

class StateCombine extends State{
-compositeShapeList : List<Shape>
-coordinatesRelativeToFirstShape : List<double[]>
-counter : int
+pointerDown(point : Point, shapeContainer : ShapeContainer) : void
+addShapes(shape : Shape) : void
+getCompositeShapes : List<Shape>
+move(x : double, y : double) : void
}

class StateDelete extends State {
{static} -instance : StateDelete = null
+pointerDown(point : Point, shapeContainer : ShapeContainer) : void
{static} +getInstance() : StateDelete
}

class StateFreeDraw extends State {
{static} -instance : StateFreeDraw
-color : Color
-line : LineFreeHand
-lineSize : int
+setColor(color : Color) : void
+setLinesize(lineSize : int) : void
+pointerDown(point : Point, shapeContainer : ShapeContainer) : void
+pointerMoved(point : Point, pointerDown : boolean, shapeContainer : ShapeContainer) : void
+pointerUp(point : Point, shapeContainer : ShapeContainer) : void
{static} +getInstance() : StateFreeDraw
}

class StateInsertCircle extends State {
{static} -instance : StateInsertCircle = null
+pointerDown(point : Point, shapeContainer : ShapeContainer) : void
{static} +getInstance() : StateInsertCircle
}

class StateInsertRectangle extends State {
{static} -instance : StateInsertRectangle = null
+pointerDown(point : Point, shapeContainer : ShapeContainer) : void
{static} +getInstance() : StateInsertRectangle
}

class StateInsertOval extends State {
{static} -instance : StateInsertRectangle = null
+pointerDown(point : Point, shapeContainer : ShapeContainer) : void
{static} +getInstance() : StateInsertOval
}

class StateInsertSquare extends State {
{static} -instance : StateInsertRectangle = null
+pointerDown(point : Point, shapeContainer : ShapeContainer) : void
{static} +getInstance() : StateInsertSquare
}

class StateInsertTriangle extends State {
{static} -instance : StateInsertRectangle = null
+pointerDown(point : Point, shapeContainer : ShapeContainer) : void
{static} +getInstance() : StateInsertTriangle
}

class StateLineWidth extends State {
static} -instance : StateLineWidth = null
-size : int
+setLineSize(size : int) : void
+pointerDown(point : Point, shapeContainer : ShapeContainer) : void
{static} +getInstance() : StateLineWidth
}

class StateMark extends State {
{static} -instance : StateMark = null
+pointerDown(point : Point, shapeContainer : ShapeContainer) : void
{static} +getInstance() : StateMark
}

class StateMarkCrosshair extends State {
{static} -instance : StateMarkCrosshair = null
+pointerDown(point : Point, shapeContainer : ShapeContainer) : void
{static} +getInstance() : StateMarkCrosshair
}

class StateMove extends State{
{static} -instance : StateMove = null
+pointerDown(point : Point, shapeContainer : ShapeContainer) : void
+pointerMoved(point : Point, pointerDown : boolean, shapeContainer : ShapeContainer) : void
+pointerUp(point : Point, shapeContainer : ShapeContainer) : void
{static} +getInstance() : StateMove
}

class StateResize extends State {
{static} -instance : StateResize = null
+pointerDown(point : Point, shapeContainer : ShapeContainer) : void
+pointerMoved(point : Point, pointerDown : boolean, shapeContainer : ShapeContainer) : void
{static} +getInstance() : StateResize
}

class StateSetTransparency extends State {
{static} -instance : StateSetTransparency = null
+pointerDown(point : Point, shapeContainer : ShapeContainer) : void
{static} +getInstance() : StateSetTransparency
}

class StateSetTransparency extends State {
{static} -instance : StateSplit = null
+pointerDown(point : Point, shapeContainer : ShapeContainer) : void
{static} +getInstance() : StateSplit
}

class StateUnmark extends State {
{static} -instance : StateUnmark = null
+pointerDown(point : Point, shapeContainer : ShapeContainer) : void
+pointerMoved(point : Point, pointerDown : boolean, shapeContainer : ShapeContainer) : void
{static} +getInstance() : StateUnmark
}

@enduml

